[main] 15:19:25,818 DEBUG [com.qmetry.qaf.automation.testng.pro.QAFAnnotationTransformer2] QAFTestNGListener registered!...
[main] 15:19:25,826 DEBUG [com.qmetry.qaf.automation.testng.pro.QAFInvokedMethodListener2] QAFTestNGListener registered!...
[main] 15:19:25,827 DEBUG [com.qmetry.qaf.automation.testng.pro.QAFMethodInterceptor] QAFTestNGListener registered!...
[main] 15:19:25,829 DEBUG [com.qmetry.qaf.automation.testng.pro.QAFResultListener] QAFTestNGListener registered!...
[main] 15:19:25,829 DEBUG [com.qmetry.qaf.automation.testng.pro.QAFSuiteListener] QAFTestNGListener registered!...
[main] 15:19:25,961 INFO  [com.qmetry.qaf.automation.core.ConfigurationManager] ISFW build info: {qaf-Type=core, qaf-Revision=12-RC3, qaf-Version=2.1, qaf-Build-Time=06-Aug-2017 11:49:43}
[main] 15:19:25,977 INFO  [com.qmetry.qaf.automation.core.ConfigurationManager] Resource dir: C:\Users\Ashwini.Velapure\QASWorkspace\WebServiceTesting\resources. Found property files to load: 3
[main] 15:19:25,997 DEBUG [com.qmetry.qaf.automation.util.PropertyUtil] clear system property ignored:file.encoding.pkg
[main] 15:19:25,998 DEBUG [com.qmetry.qaf.automation.util.PropertyUtil] clear system property ignored:file.encoding
[main] 15:19:25,998 DEBUG [com.qmetry.qaf.automation.util.PropertyUtil] clear system property ignored:file.separator
[main] 15:19:25,998 DEBUG [com.qmetry.qaf.automation.util.PropertyUtil] clear system property ignored:user.country
[main] 15:19:25,998 DEBUG [com.qmetry.qaf.automation.util.PropertyUtil] clear system property ignored:user.script
[main] 15:19:25,998 DEBUG [com.qmetry.qaf.automation.util.PropertyUtil] clear system property ignored:user.dir
[main] 15:19:25,998 DEBUG [com.qmetry.qaf.automation.util.PropertyUtil] clear system property ignored:user.variant
[main] 15:19:25,998 DEBUG [com.qmetry.qaf.automation.util.PropertyUtil] clear system property ignored:user.home
[main] 15:19:25,998 DEBUG [com.qmetry.qaf.automation.util.PropertyUtil] clear system property ignored:user.timezone
[main] 15:19:25,998 DEBUG [com.qmetry.qaf.automation.util.PropertyUtil] clear system property ignored:user.name
[main] 15:19:25,998 DEBUG [com.qmetry.qaf.automation.util.PropertyUtil] clear system property ignored:user.language
[main] 15:19:25,999 DEBUG [com.qmetry.qaf.automation.util.PropertyUtil] clear system property ignored:selenium.screenshots.relative.path
[main] 15:19:25,999 DEBUG [com.qmetry.qaf.automation.util.PropertyUtil] clear system property ignored:selenium.screenshots.dir
[main] 15:19:25,999 DEBUG [com.qmetry.qaf.automation.util.PropertyUtil] clear system property ignored:os.arch
[main] 15:19:25,999 DEBUG [com.qmetry.qaf.automation.util.PropertyUtil] clear system property ignored:os.name
[main] 15:19:25,999 DEBUG [com.qmetry.qaf.automation.util.PropertyUtil] clear system property ignored:os.version
[main] 15:19:25,999 DEBUG [com.qmetry.qaf.automation.util.PropertyUtil] clear system property ignored:line.separator
[main] 15:19:25,999 DEBUG [com.qmetry.qaf.automation.util.PropertyUtil] clear system property ignored:log4j.configuration
[main] 15:19:26,001 DEBUG [com.qmetry.qaf.automation.util.PropertyUtil] clear system property ignored:json.report.dir
[main] 15:19:26,002 DEBUG [com.qmetry.qaf.automation.util.PropertyUtil] clear system property ignored:awt.toolkit
[main] 15:19:26,002 DEBUG [com.qmetry.qaf.automation.util.PropertyUtil] clear system property ignored:outputDir
[main] 15:19:26,003 INFO  [com.qmetry.qaf.automation.core.ConfigurationManager] Resource dir: C:\Users\Ashwini.Velapure\QASWorkspace\WebServiceTesting\resources. Found property files to load: 1
[main] 15:19:26,007 DEBUG [org.apache.commons.configuration.ConfigurationUtils] ConfigurationUtils.locate(): base is null, name is null
[main] 15:19:26,124 DEBUG [org.apache.commons.configuration.ConfigurationUtils] ConfigurationUtils.locate(): base is C:\Users\Ashwini.Velapure\QASWorkspace\WebServiceTesting\resources, name is TestData.xml
[main] 15:19:26,125 DEBUG [org.apache.commons.configuration.DefaultFileSystem] Could not locate file TestData.xml at C:\Users\Ashwini.Velapure\QASWorkspace\WebServiceTesting\resources: unknown protocol: c
[main] 15:19:26,126 DEBUG [org.apache.commons.configuration.ConfigurationUtils] Loading configuration from the path C:\Users\Ashwini.Velapure\QASWorkspace\WebServiceTesting\resources\TestData.xml
[main] 15:19:26,130 DEBUG [com.qmetry.qaf.automation.util.PropertyUtil] clear system property ignored:file.encoding.pkg
[main] 15:19:26,131 DEBUG [com.qmetry.qaf.automation.util.PropertyUtil] clear system property ignored:file.encoding
[main] 15:19:26,131 DEBUG [com.qmetry.qaf.automation.util.PropertyUtil] clear system property ignored:file.separator
[main] 15:19:26,131 DEBUG [com.qmetry.qaf.automation.util.PropertyUtil] clear system property ignored:user.country
[main] 15:19:26,131 DEBUG [com.qmetry.qaf.automation.util.PropertyUtil] clear system property ignored:user.script
[main] 15:19:26,131 DEBUG [com.qmetry.qaf.automation.util.PropertyUtil] clear system property ignored:user.dir
[main] 15:19:26,131 DEBUG [com.qmetry.qaf.automation.util.PropertyUtil] clear system property ignored:user.variant
[main] 15:19:26,131 DEBUG [com.qmetry.qaf.automation.util.PropertyUtil] clear system property ignored:user.home
[main] 15:19:26,131 DEBUG [com.qmetry.qaf.automation.util.PropertyUtil] clear system property ignored:user.timezone
[main] 15:19:26,131 DEBUG [com.qmetry.qaf.automation.util.PropertyUtil] clear system property ignored:user.name
[main] 15:19:26,131 DEBUG [com.qmetry.qaf.automation.util.PropertyUtil] clear system property ignored:user.language
[main] 15:19:26,131 DEBUG [com.qmetry.qaf.automation.util.PropertyUtil] clear system property ignored:selenium.screenshots.relative.path
[main] 15:19:26,132 DEBUG [com.qmetry.qaf.automation.util.PropertyUtil] clear system property ignored:selenium.screenshots.dir
[main] 15:19:26,132 DEBUG [com.qmetry.qaf.automation.util.PropertyUtil] clear system property ignored:os.arch
[main] 15:19:26,132 DEBUG [com.qmetry.qaf.automation.util.PropertyUtil] clear system property ignored:os.name
[main] 15:19:26,132 DEBUG [com.qmetry.qaf.automation.util.PropertyUtil] clear system property ignored:os.version
[main] 15:19:26,132 DEBUG [com.qmetry.qaf.automation.util.PropertyUtil] clear system property ignored:line.separator
[main] 15:19:26,132 DEBUG [com.qmetry.qaf.automation.util.PropertyUtil] clear system property ignored:log4j.configuration
[main] 15:19:26,132 DEBUG [com.qmetry.qaf.automation.util.PropertyUtil] clear system property ignored:json.report.dir
[main] 15:19:26,132 DEBUG [com.qmetry.qaf.automation.util.PropertyUtil] clear system property ignored:awt.toolkit
[main] 15:19:26,132 DEBUG [com.qmetry.qaf.automation.util.PropertyUtil] clear system property ignored:outputDir
[main] 15:19:26,331 DEBUG [com.qmetry.qaf.automation.testng.pro.QAFInvokedMethodListener2] beforeInvocation: setupSuit
[main] 15:19:26,339 DEBUG [com.qmetry.qaf.automation.testng.pro.QAFInvokedMethodListener2] afterInvocation: setupSuit - com.qmetry.qaf.automation.ui is test:false
[main] 15:19:26,339 DEBUG [com.qmetry.qaf.automation.testng.pro.QAFInvokedMethodListener2] afterInvocation: Done
[main] 15:19:26,342 DEBUG [com.qmetry.qaf.automation.testng.pro.QAFInvokedMethodListener2] beforeInvocation: setupTest
[main] 15:19:26,344 DEBUG [com.qmetry.qaf.automation.testng.pro.QAFInvokedMethodListener2] afterInvocation: setupTest - com.qmetry.qaf.automation.ui is test:false
[main] 15:19:26,344 DEBUG [com.qmetry.qaf.automation.testng.pro.QAFInvokedMethodListener2] afterInvocation: Done
[main] 15:19:26,346 DEBUG [com.qmetry.qaf.automation.testng.pro.QAFMethodInterceptor] Method Order interceptor called
[main] 15:19:26,352 DEBUG [com.qmetry.qaf.automation.testng.pro.QAFInvokedMethodListener2] beforeInvocation: setup
[main] 15:19:26,352 DEBUG [com.qmetry.qaf.automation.testng.pro.QAFInvokedMethodListener2] afterInvocation: setup - com.qmetry.qaf.automation.ui is test:false
[main] 15:19:26,353 DEBUG [com.qmetry.qaf.automation.testng.pro.QAFInvokedMethodListener2] afterInvocation: Done
[main] 15:19:26,363 DEBUG [com.qmetry.qaf.automation.testng.pro.QAFInvokedMethodListener2] beforeInvocation: setupMethod
[main] 15:19:26,364 DEBUG [com.qmetry.qaf.automation.testng.pro.QAFInvokedMethodListener2] afterInvocation: setupMethod - com.qmetry.qaf.automation.ui is test:false
[main] 15:19:26,365 DEBUG [com.qmetry.qaf.automation.testng.pro.QAFInvokedMethodListener2] afterInvocation: Done
[main] 15:19:26,371 DEBUG [com.qmetry.qaf.automation.testng.pro.QAFResultListener] onTestStart: start
[main] 15:19:26,371 DEBUG [com.qmetry.qaf.automation.testng.pro.QAFInvokedMethodListener2] beforeInvocation: Place an Order
[main] 15:19:26,608 DEBUG [com.webservicetestingutils.UserBean] NAME :: lastname
[main] 15:19:26,611 DEBUG [com.webservicetestingutils.UserBean] NAME :: username
[main] 15:19:26,611 DEBUG [com.webservicetestingutils.UserBean] NAME :: firstname
[main] 15:19:26,611 DEBUG [com.webservicetestingutils.UserBean] NAME :: password
[main] 15:19:26,641 DEBUG [com.qmetry.qaf.automation.testng.pro.QAFInvokedMethodListener2] afterInvocation: Place an Order - com.qmetry.qaf.automation.step.client is test:true
[main] 15:19:26,642 DEBUG [com.qmetry.qaf.automation.testng.pro.QAFInvokedMethodListener2] afterInvocation: Done
[main] 15:19:26,663 DEBUG [com.qmetry.qaf.automation.testng.report.ReporterUtil] method:  result: fail groups: {description=Place a New Order using webservice, groups=[Ljava.lang.String;@449a4f23, lineNo=7, name=Place an Order, referece=scenarios/suite1.bdd, sign=scenarios.suite1.bdd.Place an Order()[pri:1000, instance:com.qmetry.qaf.automation.step.client.Scenario@3e8]}
[main] 15:19:26,666 DEBUG [com.qmetry.qaf.automation.testng.pro.QAFInvokedMethodListener2] beforeInvocation: afterMethod
[main] 15:19:26,666 DEBUG [com.qmetry.qaf.automation.testng.pro.QAFInvokedMethodListener2] afterInvocation: afterMethod - com.qmetry.qaf.automation.ui is test:false
[main] 15:19:26,666 DEBUG [com.qmetry.qaf.automation.testng.pro.QAFInvokedMethodListener2] afterInvocation: Done
[main] 15:19:26,666 DEBUG [com.qmetry.qaf.automation.testng.pro.QAFInvokedMethodListener2] beforeInvocation: afterClass
[main] 15:19:26,666 DEBUG [com.qmetry.qaf.automation.testng.pro.QAFInvokedMethodListener2] afterInvocation: afterClass - com.qmetry.qaf.automation.ui is test:false
[main] 15:19:26,666 DEBUG [com.qmetry.qaf.automation.testng.pro.QAFInvokedMethodListener2] afterInvocation: Done
[main] 15:19:26,666 DEBUG [com.qmetry.qaf.automation.testng.pro.QAFInvokedMethodListener2] beforeInvocation: afterTest
[main] 15:19:26,666 DEBUG [com.qmetry.qaf.automation.testng.pro.QAFInvokedMethodListener2] afterInvocation: afterTest - com.qmetry.qaf.automation.ui is test:false
[main] 15:19:26,666 DEBUG [com.qmetry.qaf.automation.testng.pro.QAFInvokedMethodListener2] afterInvocation: Done
[main] 15:19:26,697 DEBUG [com.qmetry.qaf.automation.testng.pro.QAFResultListener] onfinish testcntext: start
[main] 15:19:26,697 DEBUG [com.qmetry.qaf.automation.testng.pro.QAFInvokedMethodListener2] beforeInvocation: afterSuit
[main] 15:19:26,697 DEBUG [com.qmetry.qaf.automation.testng.pro.QAFInvokedMethodListener2] afterInvocation: afterSuit - com.qmetry.qaf.automation.ui is test:false
[main] 15:19:26,697 DEBUG [com.qmetry.qaf.automation.testng.pro.QAFInvokedMethodListener2] afterInvocation: Done
[main] 15:19:26,722 DEBUG [com.qmetry.qaf.automation.testng.pro.QAFSuiteListener] onFinish: start
[main] 15:19:26,730 DEBUG [com.qmetry.qaf.automation.testng.pro.QAFSuiteListener] onFinish: done
