<?xml version="1.0" encoding="UTF-8"?>
<testng-results skipped="0" failed="1" ignored="0" total="1" passed="0">
  <reporter-output>
    <line>
      <![CDATA[<div style="display:block;margin-left:10px;"><div  class="teststepfail"><span class="teststepfail-label">T </span>Given User register using webservice</div><div style="display:block;margin-left:10px;"><div  class="fail"><span class="fail-label">F </span>null</div></div><div  class="teststep"><span class="teststep-label">T </span>And User login with same credentials</div><div  class="teststep"><span class="teststep-label">T </span>And User add item '${User.item}' in cart</div><div  class="teststep"><span class="teststep-label">T </span>And User add shipping address as '${User.Address}' and card as '${User.card}'</div></div>]]>
    </line>
  </reporter-output>
  <suite name="QAS Demo" duration-ms="301" started-at="2018-03-23T09:00:04Z" finished-at="2018-03-23T09:00:04Z">
    <groups>
      <group name="P1">
        <method signature="scenarios.suite1.bdd.Place an Order()[pri:1000, instance:com.qmetry.qaf.automation.step.client.Scenario@3e8]" name="Place an Order" class="com.qmetry.qaf.automation.step.client.Scenario"/>
      </group> <!-- P1 -->
      <group name="P2">
        <method signature="scenarios.suite1.bdd.Place an Order()[pri:1000, instance:com.qmetry.qaf.automation.step.client.Scenario@3e8]" name="Place an Order" class="com.qmetry.qaf.automation.step.client.Scenario"/>
      </group> <!-- P2 -->
      <group name="SMOKE">
        <method signature="scenarios.suite1.bdd.Place an Order()[pri:1000, instance:com.qmetry.qaf.automation.step.client.Scenario@3e8]" name="Place an Order" class="com.qmetry.qaf.automation.step.client.Scenario"/>
      </group> <!-- SMOKE -->
    </groups>
    <test name="BDD Test" duration-ms="301" started-at="2018-03-23T09:00:04Z" finished-at="2018-03-23T09:00:04Z">
      <class name="com.qmetry.qaf.automation.step.client.Scenario">
        <test-method status="PASS" signature="setupSuit(org.testng.ITestContext)[pri:0, instance:com.qmetry.qaf.automation.step.client.Scenario@3e8]" test-instance-name="Place an Order" name="setupSuit" is-config="true" duration-ms="37" started-at="2018-03-23T14:30:04Z" finished-at="2018-03-23T14:30:04Z">
          <params>
            <param index="0">
              <value>
                <![CDATA[org.testng.TestRunner@14dd9eb7]]>
              </value>
            </param>
          </params>
          <reporter-output>
          </reporter-output>
        </test-method> <!-- setupSuit -->
        <test-method status="PASS" signature="setupTest(org.testng.ITestContext)[pri:0, instance:com.qmetry.qaf.automation.step.client.Scenario@3e8]" test-instance-name="Place an Order" name="setupTest" is-config="true" duration-ms="0" started-at="2018-03-23T14:30:04Z" finished-at="2018-03-23T14:30:04Z">
          <params>
            <param index="0">
              <value>
                <![CDATA[org.testng.TestRunner@14dd9eb7]]>
              </value>
            </param>
          </params>
          <reporter-output>
          </reporter-output>
        </test-method> <!-- setupTest -->
        <test-method status="PASS" signature="setup(org.testng.ITestContext)[pri:0, instance:com.qmetry.qaf.automation.step.client.Scenario@3e8]" test-instance-name="Place an Order" name="setup" is-config="true" duration-ms="0" started-at="2018-03-23T14:30:04Z" finished-at="2018-03-23T14:30:04Z">
          <params>
            <param index="0">
              <value>
                <![CDATA[org.testng.TestRunner@14dd9eb7]]>
              </value>
            </param>
          </params>
          <reporter-output>
          </reporter-output>
        </test-method> <!-- setup -->
        <test-method status="FAIL" signature="Place an Order()[pri:1000, instance:com.qmetry.qaf.automation.step.client.Scenario@3e8]" test-instance-name="Place an Order" name="Place an Order" duration-ms="200" started-at="2018-03-23T14:30:04Z" description="Place a New Order using webservice" finished-at="2018-03-23T14:30:04Z">
          <exception class="java.lang.NullPointerException">
            <full-stacktrace>
              <![CDATA[java.lang.NullPointerException
	at .Given User register using webservice(scenarios/suite1.bdd:10)
	at com.qmetry.qaf.automation.ws.rest.RestTestBase.getWebResource(RestTestBase.java:81)
	at com.qmetry.qaf.automation.ws.rest.RestTestBase.getWebResource(RestTestBase.java:76)
	at com.qmetry.qaf.automation.ws.rest.RestWSTestCase.getWebResource(RestWSTestCase.java:49)
	at com.webservicetesting.steps.WebServiceTest.userRegisterUsingWebservice_aroundBody0(WebServiceTest.java:19)
	at com.qmetry.qaf.automation.step.JavaStepReporter.javaTestStep(JavaStepReporter.java:101)
	at com.webservicetesting.steps.WebServiceTest.userRegisterUsingWebservice(WebServiceTest.java:16)
	at com.qmetry.qaf.automation.step.JavaStep.doExecute(JavaStep.java:160)
	at com.qmetry.qaf.automation.step.BaseTestStep.execute(BaseTestStep.java:149)
	at com.qmetry.qaf.automation.step.StringTestStep.execute(StringTestStep.java:134)
	at com.qmetry.qaf.automation.step.client.Scenario.execute(Scenario.java:167)
	at com.qmetry.qaf.automation.step.client.Scenario.scenario(Scenario.java:219)
	at org.apache.maven.surefire.testng.TestNGExecutor.run(TestNGExecutor.java:122)
	at org.apache.maven.surefire.testng.TestNGXmlTestSuite.execute(TestNGXmlTestSuite.java:92)
	at org.apache.maven.surefire.testng.TestNGProvider.invoke(TestNGProvider.java:101)
	at org.apache.maven.surefire.util.ReflectionUtils.invokeMethodWithArray(ReflectionUtils.java:164)
	at org.apache.maven.surefire.booter.ProviderFactory$ProviderProxy.invoke(ProviderFactory.java:110)
	at org.apache.maven.surefire.booter.SurefireStarter.invokeProvider(SurefireStarter.java:172)
	at org.apache.maven.surefire.booter.SurefireStarter.runSuitesInProcessWhenForked(SurefireStarter.java:104)
	at org.apache.maven.surefire.booter.ForkedBooter.main(ForkedBooter.java:70)
]]>
            </full-stacktrace>
          </exception> <!-- java.lang.NullPointerException -->
          <reporter-output>
            <line>
              <![CDATA[<div style="display:block;margin-left:10px;"><div  class="teststepfail"><span class="teststepfail-label">T </span>Given User register using webservice</div><div style="display:block;margin-left:10px;"><div  class="fail"><span class="fail-label">F </span>null</div></div><div  class="teststep"><span class="teststep-label">T </span>And User login with same credentials</div><div  class="teststep"><span class="teststep-label">T </span>And User add item '${User.item}' in cart</div><div  class="teststep"><span class="teststep-label">T </span>And User add shipping address as '${User.Address}' and card as '${User.card}'</div></div>]]>
            </line>
          </reporter-output>
        </test-method> <!-- Place an Order -->
        <test-method status="PASS" signature="setupMethod(java.lang.reflect.Method, org.testng.ITestContext)[pri:0, instance:com.qmetry.qaf.automation.step.client.Scenario@3e8]" test-instance-name="Place an Order" name="setupMethod" is-config="true" duration-ms="0" started-at="2018-03-23T14:30:04Z" finished-at="2018-03-23T14:30:04Z">
          <params>
            <param index="0">
              <value>
                <![CDATA[public void com.qmetry.qaf.automation.step.client.Scenario.scenario()]]>
              </value>
            </param>
            <param index="1">
              <value>
                <![CDATA[org.testng.TestRunner@14dd9eb7]]>
              </value>
            </param>
          </params>
          <reporter-output>
          </reporter-output>
        </test-method> <!-- setupMethod -->
        <test-method status="PASS" signature="afterTest(org.testng.ITestContext)[pri:0, instance:com.qmetry.qaf.automation.step.client.Scenario@3e8]" test-instance-name="Place an Order" name="afterTest" is-config="true" duration-ms="0" started-at="2018-03-23T14:30:04Z" finished-at="2018-03-23T14:30:04Z">
          <params>
            <param index="0">
              <value>
                <![CDATA[org.testng.TestRunner@14dd9eb7]]>
              </value>
            </param>
          </params>
          <reporter-output>
          </reporter-output>
        </test-method> <!-- afterTest -->
        <test-method status="PASS" signature="afterMethod(org.testng.ITestContext, org.testng.ITestResult)[pri:0, instance:com.qmetry.qaf.automation.step.client.Scenario@3e8]" test-instance-name="Place an Order" name="afterMethod" is-config="true" duration-ms="0" started-at="2018-03-23T14:30:04Z" finished-at="2018-03-23T14:30:04Z">
          <params>
            <param index="0">
              <value>
                <![CDATA[org.testng.TestRunner@14dd9eb7]]>
              </value>
            </param>
            <param index="1">
              <value>
                <![CDATA[[TestResult name=Place an Order status=FAILURE method=scenarios.suite1.bdd.Place an Order()[pri:1000, instance:com.qmetry.qaf.automation.step.client.Scenario@3e8] output=<div style="display:block;margin-left:10px;"><div  class="teststepfail"><span class="teststepfail-label">T </span>Given User register using webservice</div><div style="display:block;margin-left:10px;"><div  class="fail"><span class="fail-label">F </span>null</div></div><div  class="teststep"><span class="teststep-label">T </span>And User login with same credentials</div><div  class="teststep"><span class="teststep-label">T </span>And User add item '${User.item}' in cart</div><div  class="teststep"><span class="teststep-label">T </span>And User add shipping address as '${User.Address}' and card as '${User.card}'</div></div>]]]>
              </value>
            </param>
          </params>
          <reporter-output>
          </reporter-output>
        </test-method> <!-- afterMethod -->
        <test-method status="PASS" signature="afterClass(org.testng.ITestContext)[pri:0, instance:com.qmetry.qaf.automation.step.client.Scenario@3e8]" test-instance-name="Place an Order" name="afterClass" is-config="true" duration-ms="0" started-at="2018-03-23T14:30:04Z" finished-at="2018-03-23T14:30:04Z">
          <params>
            <param index="0">
              <value>
                <![CDATA[org.testng.TestRunner@14dd9eb7]]>
              </value>
            </param>
          </params>
          <reporter-output>
          </reporter-output>
        </test-method> <!-- afterClass -->
        <test-method status="PASS" signature="afterSuit(org.testng.ITestContext)[pri:0, instance:com.qmetry.qaf.automation.step.client.Scenario@3e8]" test-instance-name="Place an Order" name="afterSuit" is-config="true" duration-ms="15" started-at="2018-03-23T14:30:04Z" finished-at="2018-03-23T14:30:04Z">
          <params>
            <param index="0">
              <value>
                <![CDATA[org.testng.TestRunner@14dd9eb7]]>
              </value>
            </param>
          </params>
          <reporter-output>
          </reporter-output>
        </test-method> <!-- afterSuit -->
      </class> <!-- com.qmetry.qaf.automation.step.client.Scenario -->
    </test> <!-- BDD Test -->
  </suite> <!-- QAS Demo -->
</testng-results>
